Project4_skiran27/lightsbench.vcd
$date
  Sun Dec 15 15:49:37 2024
$end
$version
  GHDL v0
$end
$timescale
  1 fs
$end
$scope module standard $end
$upscope $end
$scope module std_logic_1164 $end
$upscope $end
$scope module numeric_std $end
$upscope $end
$scope module lightsbench $end
$var reg 1 ! clk $end
$var reg 1 " reset $end
$var reg 8 # lightsig[7:0] $end
$scope module l0 $end
$var reg 1 $ clk $end
$var reg 1 % reset $end
$var reg 8 & lightsig[7:0] $end
$var reg 3 ' irview[2:0] $end
$var reg 3 ( ir[2:0] $end
$var reg 4 ) pc[3:0] $end
$var reg 8 * lr[7:0] $end
$var reg 3 + romvalue[2:0] $end
$comment state is not handled $end
$scope module rominstance $end
$var reg 4 , addr[3:0] $end
$var reg 3 - data[2:0] $end
$upscope $end
$upscope $end
$upscope $end
$enddefinitions $end
#0
0!
0"
b00000000 #
0$
0%
b00000000 &
b000 '
b000 (
b0000 )
b00000000 *
b000 +
b0000 ,
b000 -
#5000000
1!
1"
1$
1%
b0001 )
b101 +
b0001 ,
b101 -
#10000000
0!
0$
#15000000
1!
1$
#20000000
0!
0$
#25000000
1!
1$
b101 '
b101 (
b0010 )
b0010 ,
#30000000
0!
0$
#35000000
1!
b11111111 #
1$
b11111111 &
b11111111 *
#40000000
0!
0$
#45000000
1!
1$
b0011 )
b0011 ,
#50000000
0!
0$
#55000000
1!
b00000000 #
1$
b00000000 &
b00000000 *
#60000000
0!
0$
#65000000
1!
1$
b0100 )
b001 +
b0100 ,
b001 -
#70000000
0!
0$
#75000000
1!
b11111111 #
1$
b11111111 &
b11111111 *
#80000000
0!
0$
#85000000
1!
1$
b001 '
b001 (
b0101 )
b0101 ,
#90000000
0!
0$
#95000000
1!
b01111111 #
1$
b01111111 &
b01111111 *
#100000000
0!
0$
#105000000
1!
1$
b0110 )
b111 +
b0110 ,
b111 -
#110000000
0!
0$
#115000000
1!
b00111111 #
1$
b00111111 &
b00111111 *
#120000000
0!
0$
#125000000
1!
1$
b111 '
b111 (
b0111 )
b0111 ,
#130000000
0!
0$
#135000000
1!
b01111110 #
1$
b01111110 &
b01111110 *
#140000000
0!
0$
#145000000
1!
1$
b1000 )
b1000 ,
#150000000
0!
0$
#155000000
1!
b11111100 #
1$
b11111100 &
b11111100 *
#160000000
0!
0$
#165000000
1!
1$
b1001 )
b1001 ,
#170000000
0!
0$
#175000000
1!
b11111001 #
1$
b11111001 &
b11111001 *
#180000000
0!
0$
#185000000
1!
1$
b1010 )
b010 +
b1010 ,
b010 -
#190000000
0!
0$
#195000000
1!
b11110011 #
1$
b11110011 &
b11110011 *
#200000000
0!
0$
#205000000
1!
1$
b010 '
b010 (
b1011 )
b1011 ,
#210000000
0!
0$
#215000000
1!
b11100110 #
1$
b11100110 &
b11100110 *
#220000000
0!
0$
#225000000
1!
1$
b1100 )
b011 +
b1100 ,
b011 -
#230000000
0!
0$
#235000000
1!
b11001100 #
1$
b11001100 &
b11001100 *
#240000000
0!
0$
#245000000
1!
1$
b011 '
b011 (
b1101 )
b100 +
b1101 ,
b100 -
#250000000
0!
0$
#255000000
1!
b11001101 #
1$
b11001101 &
b11001101 *
#260000000
0!
0$
#265000000
1!
1$
b100 '
b100 (
b1110 )
b101 +
b1110 ,
b101 -
#270000000
0!
0$
#275000000
1!
b11001100 #
1$
b11001100 &
b11001100 *
#280000000
0!
0$
#285000000
1!
1$
b101 '
b101 (
b1111 )
b011 +
b1111 ,
b011 -
#290000000
0!
0$
#295000000
1!
b00110011 #
1$
b00110011 &
b00110011 *
#300000000
0!
0$
#305000000
1!
1$
b011 '
b011 (
b0000 )
b000 +
b0000 ,
b000 -
#310000000
0!
0$
#315000000
1!
b00110100 #
1$
b00110100 &
b00110100 *
#320000000
0!
0$
#325000000
1!
1$
b000 '
b000 (
b0001 )
b101 +
b0001 ,
b101 -
#330000000
0!
0$
#335000000
1!
b00000000 #
1$
b00000000 &
b00000000 *
#340000000
0!
0$
#345000000
1!
1$
b101 '
b101 (
b0010 )
b0010 ,
#350000000
0!
0$
#355000000
1!
b11111111 #
1$
b11111111 &
b11111111 *
#360000000
0!
0$
#365000000
1!
1$
b0011 )
b0011 ,
#370000000
0!
0$
#375000000
1!
b00000000 #
1$
b00000000 &
b00000000 *
#380000000
0!
0$
#385000000
1!
1$
b0100 )
b001 +
b0100 ,
b001 -
#390000000
0!
0$
#395000000
1!
b11111111 #
1$
b11111111 &
b11111111 *
