Project5_skiran27/pldbench.vcd
$date
  Sun Dec 15 16:10:50 2024
$end
$version
  GHDL v0
$end
$timescale
  1 fs
$end
$scope module standard $end
$upscope $end
$scope module std_logic_1164 $end
$upscope $end
$scope module numeric_std $end
$upscope $end
$scope module pldbench $end
$var reg 1 ! clk $end
$var reg 1 " reset $end
$var reg 8 # lightsig[7:0] $end
$scope module l0 $end
$var reg 1 $ clk $end
$var reg 1 % reset $end
$var reg 8 & lights[7:0] $end
$var reg 3 ' irview[2:0] $end
$var reg 10 ( ir[9:0] $end
$var reg 4 ) pc[3:0] $end
$var reg 8 * lr[7:0] $end
$var reg 10 + romvalue[9:0] $end
$comment state is not handled $end
$var reg 8 , acc[7:0] $end
$var reg 8 - src[7:0] $end
$scope module rominstance $end
$var reg 4 . addr[3:0] $end
$var reg 10 / data[9:0] $end
$upscope $end
$upscope $end
$upscope $end
$enddefinitions $end
#0
0!
0"
b00000000 #
0$
0%
b00000000 &
b000 '
b0000000000 (
b0000 )
b00000000 *
b0001110000 +
b00000000 ,
bUUUUUUUU -
b0000 .
b0001110000 /
#5000000
1!
1"
1$
1%
b0001110000 (
b0001 )
b0011100000 +
b0001 .
b0011100000 /
#10000000
0!
0$
#15000000
1!
1$
b11111111 -
#20000000
0!
0$
#25000000
1!
b11111111 #
1$
b11111111 &
b11111111 *
#30000000
0!
0$
#35000000
1!
1$
b0011100000 (
b0010 )
b0010100010 +
b0010 .
b0010100010 /
#40000000
0!
0$
#45000000
1!
1$
b00000000 -
#50000000
0!
0$
#55000000
1!
1$
#60000000
0!
0$
#65000000
1!
1$
b010 '
b0010100010 (
b0011 )
b0100000100 +
b0011 .
b0100000100 /
#70000000
0!
0$
#75000000
1!
1$
b00000010 -
#80000000
0!
0$
#85000000
1!
1$
b00000010 ,
#90000000
0!
0$
#95000000
1!
1$
b100 '
b0100000100 (
b0100 )
b0100 .
#100000000
0!
0$
#105000000
1!
1$
#110000000
0!
0$
#115000000
1!
b00000001 #
1$
b00000001 &
b00000001 *
#120000000
0!
0$
#125000000
1!
1$
b0101 )
b0100100100 +
b0101 .
b0100100100 /
#130000000
0!
0$
#135000000
1!
1$
#140000000
0!
0$
#145000000
1!
b00000011 #
1$
b00000011 &
b00000011 *
#150000000
0!
0$
#155000000
1!
1$
b0100100100 (
b0110 )
b0101001100 +
b0110 .
b0101001100 /
#160000000
0!
0$
#165000000
1!
1$
#170000000
0!
0$
#175000000
1!
b00000001 #
1$
b00000001 &
b00000001 *
#180000000
0!
0$
#185000000
1!
1$
b0101001100 (
b0111 )
b0101101100 +
b0111 .
b0101101100 /
#190000000
0!
0$
#195000000
1!
1$
b00000001 -
#200000000
0!
0$
#205000000
1!
b00000010 #
1$
b00000010 &
b00000010 *
#210000000
0!
0$
#215000000
1!
1$
b0101101100 (
b1000 )
b0111101100 +
b1000 .
b0111101100 /
#220000000
0!
0$
#225000000
1!
1$
b00000010 -
#230000000
0!
0$
#235000000
1!
b00000001 #
1$
b00000001 &
b00000001 *
#240000000
0!
0$
#245000000
1!
1$
b0111101100 (
b1001 )
b0101101100 +
b1001 .
b0101101100 /
#250000000
0!
0$
#255000000
1!
1$
b00000001 -
#260000000
0!
0$
#265000000
1!
b10000000 #
1$
b10000000 &
b10000000 *
#270000000
0!
0$
#275000000
1!
1$
b0101101100 (
b1010 )
b0110011100 +
b1010 .
b0110011100 /
#280000000
0!
0$
#285000000
1!
1$
b10000000 -
#290000000
0!
0$
#295000000
1!
b11000000 #
1$
b11000000 &
b11000000 *
#300000000
0!
0$
#305000000
1!
1$
b0110011100 (
b1011 )
b0110110101 +
b1011 .
b0110110101 /
#310000000
0!
0$
#315000000
1!
1$
b11111111 -
#320000000
0!
0$
#325000000
1!
b00111111 #
1$
b00111111 &
b00111111 *
#330000000
0!
0$
#335000000
1!
1$
b101 '
b0110110101 (
b1100 )
b0100010110 +
b1100 .
b0100010110 /
#340000000
0!
0$
#345000000
1!
1$
b00000101 -
#350000000
0!
0$
#355000000
1!
b00000101 #
1$
b00000101 &
b00000101 *
#360000000
0!
0$
#365000000
1!
1$
b110 '
b0100010110 (
b1101 )
b1111111111 +
b1101 .
b1111111111 /
#370000000
0!
0$
#375000000
1!
1$
b00000110 -
#380000000
0!
0$
#385000000
1!
b00001011 #
1$
b00001011 &
b00001011 *
#390000000
0!
0$
#395000000
1!
1$
b111 '
b1111111111 (
b1110 )
b1110 .
#400000000
0!
0$
#405000000
1!
1$
#410000000
0!
0$
#415000000
1!
1$
#420000000
0!
0$
#425000000
1!
1$
b1111 )
b1111 .
#430000000
0!
0$
#435000000
1!
1$
#440000000
0!
0$
#445000000
1!
1$
#450000000
0!
0$
#455000000
1!
1$
b0000 )
b0001110000 +
b0000 .
b0001110000 /
#460000000
0!
0$
#465000000
1!
1$
#470000000
0!
0$
#475000000
1!
1$
#480000000
0!
0$
#485000000
1!
1$
b000 '
b0001110000 (
b0001 )
b0011100000 +
b0001 .
b0011100000 /
#490000000
0!
0$
#495000000
1!
1$
b11111111 -
#500000000
0!
0$
#505000000
1!
b11111111 #
1$
b11111111 &
b11111111 *
#510000000
0!
0$
#515000000
1!
1$
b0011100000 (
b0010 )
b0010100010 +
b0010 .
b0010100010 /
#520000000
0!
0$
#525000000
1!
1$
b00000000 -
#530000000
0!
0$
#535000000
1!
1$
#540000000
0!
0$
#545000000
1!
1$
b010 '
b0010100010 (
b0011 )
b0100000100 +
b0011 .
b0100000100 /
#550000000
0!
0$
#555000000
1!
1$
b00000010 -
#560000000
0!
0$
#565000000
1!
1$
#570000000
0!
0$
#575000000
1!
1$
b100 '
b0100000100 (
b0100 )
b0100 .
#580000000
0!
0$
#585000000
1!
1$
#590000000
0!
0$
#595000000
1!
b00000001 #
1$
b00000001 &
b00000001 *
#600000000
0!
0$
#605000000
1!
1$
b0101 )
b0100100100 +
b0101 .
b0100100100 /
#610000000
0!
0$
#615000000
1!
1$
#620000000
0!
0$
#625000000
1!
b00000011 #
1$
b00000011 &
b00000011 *
#630000000
0!
0$
#635000000
1!
1$
b0100100100 (
b0110 )
b0101001100 +
b0110 .
b0101001100 /
#640000000
0!
0$
#645000000
1!
1$
#650000000
0!
0$
#655000000
1!
b00000001 #
1$
b00000001 &
b00000001 *
#660000000
0!
0$
#665000000
1!
1$
b0101001100 (
b0111 )
b0101101100 +
b0111 .
b0101101100 /
#670000000
0!
0$
#675000000
1!
1$
b00000001 -
#680000000
0!
0$
#685000000
1!
b00000010 #
1$
b00000010 &
b00000010 *
#690000000
0!
0$
#695000000
1!
1$
b0101101100 (
b1000 )
b0111101100 +
b1000 .
b0111101100 /
#700000000
0!
0$
#705000000
1!
1$
b00000010 -
#710000000
0!
0$
#715000000
1!
b00000001 #
1$
b00000001 &
b00000001 *
#720000000
0!
0$
#725000000
1!
1$
b0111101100 (
b1001 )
b0101101100 +
b1001 .
b0101101100 /
#730000000
0!
0$
#735000000
1!
1$
b00000001 -
#740000000
0!
0$
#745000000
1!
b10000000 #
1$
b10000000 &
b10000000 *
#750000000
0!
0$
#755000000
1!
1$
b0101101100 (
b1010 )
b0110011100 +
b1010 .
b0110011100 /
#760000000
0!
0$
#765000000
1!
1$
b10000000 -
#770000000
0!
0$
#775000000
1!
b11000000 #
1$
b11000000 &
b11000000 *
#780000000
0!
0$
#785000000
1!
1$
b0110011100 (
b1011 )
b0110110101 +
b1011 .
b0110110101 /
#790000000
0!
0$
#795000000
1!
1$
b11111111 -
