Project3_skiran27/bright/brighttest.vcd
$date
  Mon Sep 30 15:03:32 2024
$end
$version
  GHDL v0
$end
$timescale
  1 fs
$end
$scope module standard $end
$upscope $end
$scope module std_logic_1164 $end
$upscope $end
$scope module brighttest $end
$var reg 1 ! reset $end
$var reg 1 " p1 $end
$var reg 1 # p2 $end
$var reg 1 $ p3 $end
$var reg 4 % gled[3:0] $end
$var reg 1 & clk $end
$scope module b0 $end
$var reg 1 ' clk $end
$var reg 1 ( buttonone $end
$var reg 1 ) buttontwo $end
$var reg 1 * buttonthree $end
$var reg 1 + reset $end
$var reg 4 , greenled[3:0] $end
$comment state is not handled $end
$upscope $end
$upscope $end
$enddefinitions $end
#0
0!
1"
1#
1$
b0001 %
0&
0'
1(
1)
1*
0+
b0001 ,
#5000000
1&
1'
#7000000
1!
1+
#10000000
0&
0'
#15000000
b0010 %
1&
1'
b0010 ,
#20000000
0"
0&
0'
0(
#25000000
b0011 %
1&
1'
b0011 ,
#30000000
0&
0'
#35000000
1"
b0100 %
1&
1'
1(
b0100 ,
#40000000
0&
0'
#45000000
0#
b0001 %
1&
1'
0)
b0001 ,
#50000000
0&
0'
#55000000
b0010 %
1&
1'
b0010 ,
#60000000
0&
0'
#65000000
1#
b0011 %
1&
1'
1)
b0011 ,
#70000000
0&
0'
#75000000
0$
1&
1'
0*
#80000000
0&
0'
#85000000
1&
1'
#90000000
1$
0&
0'
1*
#95000000
b0100 %
1&
1'
b0100 ,
#100000000
0&
0'
#105000000
0"
b0001 %
1&
1'
0(
b0001 ,
#110000000
0&
0'
#115000000
1&
1'
#120000000
0&
0'
#125000000
1"
b0010 %
1&
1'
1(
b0010 ,
#130000000
0&
0'
#135000000
0#
1&
1'
0)
#140000000
0&
0'
#145000000
1#
b0011 %
1&
1'
1)
b0011 ,
#150000000
0&
0'
#155000000
0"
b0100 %
1&
1'
0(
b0100 ,
#160000000
0&
0'
#165000000
1"
b0001 %
1&
1'
1(
b0001 ,
#170000000
0&
0'
#175000000
b0010 %
1&
1'
b0010 ,
#180000000
0&
0'
#185000000
b0011 %
1&
1'
b0011 ,
#190000000
0&
0'
#195000000
b0100 %
1&
1'
b0100 ,
